%YAML 1.1
%TAG !u! tag:unity3d.com,2011:
--- !u!78 &1
TagManager:
  serializedVersion: 2
  tags: []
  layers:
  - Default
  - TransparentFX
  - Ignore Raycast
  - 
  - Water
  - UI
  - 
  - 
  - 
  - 
  - 
  - 
  - 
  - 
  - 
  - 
  - 
  - 
  - 
  - 
  - 
  - 
  - 
  - 
  - 
  - 
  - 
  - 
  - 
  - 
  - 
  - 
  m_SortingLayers:
  - name: Background
    uniqueID: 3766716383
    locked: 0
  - name: MahjongLayer1
    uniqueID: 563091561
    locked: 0
  - name: MahjongLayer2
    uniqueID: 1404811255
    locked: 0
  - name: MahjongLayer3
    uniqueID: 182730393
    locked: 0
  - name: MahjongLayer4
    uniqueID: 770568691
    locked: 0
  - name: MahjongLayerTop
    uniqueID: 667393623
    locked: 0
  - name: Default
    uniqueID: 0
    locked: 0
